,DATASET,Comparison,μ₁,μ₂,d,t-test (paired),p (paired),t-test (Welch's),p (Welch's),Wilcoxon,p (Wilcoxon),Mann-Whitney U,p (Mann-Whitney),AUC
Largest Eigenvalue,LEARNING,rest_v_task,13422.878841593985,12896.760614098055,0.09797676908265124,,,0.5562251419118671,0.5802930394727495,,,9450.0,0.7746352408568998,0.5126953125
Noise Ratio,LEARNING,rest_v_task,0.035975085910652925,0.03884772336769759,-0.1973634276961699,,,-1.316772861913886,0.19291422130215075,,,8229.0,0.2228699210011983,0.4464518229166667
Shifted Noise Ratio,LEARNING,rest_v_task,0.0739905498281787,0.08325279209621993,-0.40025546517044297,,,-2.499603122922872,0.015286405280058122,,,7139.0,0.01068517470946657,0.3873155381944444
β,LEARNING,rest_v_task,0.9478937451213749,0.9749414587063855,-0.22193271885695906,,,-1.1411054218339756,0.2589088208727376,,,8107.0,0.009607217887419263,0.4398328993055556
Largest Eigenvalue,OSTEO,allpain_v_nopain,16523.597471417255,17350.597886260606,-0.22975848398490792,,,-0.9376645453064779,0.35436978280005904,,,475.0,0.31887839225673664,0.42410714285714285
Noise Ratio,OSTEO,allpain_v_nopain,0.012468575743639243,0.010869565217391302,0.37152385738536814,,,1.393907158488495,0.17290139850689756,,,678.5,0.1531926713496413,0.6058035714285714
Shifted Noise Ratio,OSTEO,allpain_v_nopain,0.01811169547361589,0.017725752508361205,0.07447649740300871,,,0.2847270733682384,0.7776183481770441,,,604.5,0.595594821272347,0.5397321428571429
β,OSTEO,allpain_v_nopain,0.006221779760226334,0.002901190360026001,0.12369656677546687,,,0.6689297439493578,0.5056958238704286,,,562.5,0.9513863605277161,0.5022321428571429
Largest Eigenvalue,OSTEO,allpain_v_duloxetine,16523.597471417255,17260.445521364938,-0.19148787902982078,,,-0.674249133256184,0.5056988136861671,,,478.5,0.5184574883092592,0.44971804511278196
Noise Ratio,OSTEO,allpain_v_duloxetine,0.012468575743639243,0.012810039121896757,-0.08348189222153164,,,-0.34329776775834603,0.7333279333482068,,,504.0,0.728920752859745,0.47368421052631576
Shifted Noise Ratio,OSTEO,allpain_v_duloxetine,0.01811169547361589,0.01782471906534491,0.05325490841442808,,,0.18616776331783932,0.8536738951301648,,,545.0,0.8768175842328717,0.5122180451127819
β,OSTEO,allpain_v_duloxetine,0.006221779760226334,1.0000057490613316e-05,0.23699526072159272,,,1.5394074696322428,0.12943884948927092,,,560.5,0.31508301571032526,0.5267857142857143
Largest Eigenvalue,OSTEO,allpain_v_pain,16523.597471417255,16145.216040363039,0.10539604261557123,,,0.5064371810802747,0.6139128161131504,,,1089.5,0.6773579161550873,0.5258204633204633
Noise Ratio,OSTEO,allpain_v_pain,0.012468575743639243,0.01229322968453403,0.0399272226498855,,,0.18540613708836806,0.8534255510713713,,,1064.0,0.8244559583750553,0.5135135135135135
Shifted Noise Ratio,OSTEO,allpain_v_pain,0.01811169547361589,0.018259061737322606,-0.02938247156036758,,,-0.14102071263153237,0.8882016763815856,,,1023.0,0.9200271390846472,0.4937258687258687
β,OSTEO,allpain_v_pain,0.006221779760226334,0.009411612580550083,-0.09661653474510741,,,-0.4377438180619345,0.6629929766017097,,,1007.5,0.6057581169814481,0.48624517374517373
Largest Eigenvalue,OSTEO,nopain_v_pain,17350.597886260606,16145.216040363039,0.3593984750986119,,,1.3113639559079031,0.1971212216758961,,,455.0,0.15767934087994107,0.6148648648648649
Noise Ratio,OSTEO,nopain_v_pain,0.010869565217391302,0.01229322968453403,-0.3127968537605016,,,-1.1378774257984385,0.26191633859810226,,,308.5,0.29511769808541277,0.4168918918918919
Shifted Noise Ratio,OSTEO,nopain_v_pain,0.017725752508361205,0.018259061737322606,-0.10823036695781295,,,-0.3795300874268807,0.7065143127326085,,,332.0,0.5194700609407747,0.4486486486486487
β,OSTEO,nopain_v_pain,0.002901190360026001,0.009411612580550083,-0.2112920347975868,,,-0.9686187922028378,0.33745596245275633,,,358.0,0.6641510962099813,0.4837837837837838
Largest Eigenvalue,OSTEO,duloxetine_v_nopain,17260.445521364938,17350.597886260606,-0.023893950361932727,,,-0.0740803719350513,0.9413832808599234,,,190.0,0.9887910583324784,0.5
Noise Ratio,OSTEO,duloxetine_v_nopain,0.012810039121896757,0.010869565217391302,0.47964892602042614,,,1.505957724091519,0.14081169673260385,,,247.0,0.10250112487927227,0.65
Shifted Noise Ratio,OSTEO,duloxetine_v_nopain,0.01782471906534491,0.017725752508361205,0.017628290380719034,,,0.05482325078946724,0.9565851273058892,,,196.5,0.8630108743536857,0.5171052631578947
β,OSTEO,duloxetine_v_nopain,1.0000057490613316e-05,0.002901190360026001,-0.3120391338480345,,,-0.9999999999999999,0.32987680092112504,,,180.5,0.35580894131397756,0.475
Largest Eigenvalue,OSTEO,duloxetine_v_pain,17260.445521364938,16145.216040363039,0.3010879494532341,,,0.9930082278423865,0.3286015756121322,,,405.0,0.3590518368769672,0.5761024182076814
Noise Ratio,OSTEO,duloxetine_v_pain,0.012810039121896757,0.01229322968453403,0.12070720389662602,,,0.4643330213280224,0.6446275404828842,,,379.5,0.6240878161093368,0.5398293029871978
Shifted Noise Ratio,OSTEO,duloxetine_v_pain,0.01782471906534491,0.018259061737322606,-0.08330269262948338,,,-0.273968893856612,0.7859880851890981,,,338.5,0.8252719001773619,0.48150782361308675
β,OSTEO,duloxetine_v_pain,1.0000057490613316e-05,0.009411612580550083,-0.31197506981392736,,,-1.5494412831426214,0.13002311288806495,,,323.0,0.2143668429168497,0.4594594594594595
Largest Eigenvalue,PSYCH_VIGILANCE_SES-1,high_v_low,117351.75748328271,102518.35724035508,0.38387562135201636,,,1.8019163017222397,0.0751229608494107,,,1106.0,0.22273309169393407,0.5760416666666667
Noise Ratio,PSYCH_VIGILANCE_SES-1,high_v_low,0.010660535117056858,0.010200668896321069,0.086919691764309,,,0.405197406438418,0.6863813064981081,,,1033.5,0.5300995708529284,0.53828125
Shifted Noise Ratio,PSYCH_VIGILANCE_SES-1,high_v_low,0.027243589743589744,0.0205685618729097,0.5826541946637556,,,2.872650603691504,0.005337004367741335,,,1217.0,0.030367606877650628,0.6338541666666667
β,PSYCH_VIGILANCE_SES-1,high_v_low,0.20500083182518494,0.021128973358526947,0.7480876847810018,,,3.806584476252917,0.00037858594444500947,,,1415.0,1.1781048535104453e-05,0.7369791666666666
Largest Eigenvalue,PSYCH_VIGILANCE_SES-2,high_v_low,111639.28962627587,109579.31602853717,0.052359278780041915,,,0.24558678636289705,0.8065896131892691,,,886.0,0.4964136031672276,0.45764462809917356
Noise Ratio,PSYCH_VIGILANCE_SES-2,high_v_low,0.010717543326238978,0.010185466707205838,0.10060197512789198,,,0.4718650896092292,0.638220107995108,,,1037.0,0.5573977266687002,0.5356404958677686
Shifted Noise Ratio,PSYCH_VIGILANCE_SES-2,high_v_low,0.024171480693219824,0.024247491638795984,-0.006366427166345874,,,-0.029861190314796702,0.976247024021432,,,943.5,0.8401053536841923,0.48734504132231404
β,PSYCH_VIGILANCE_SES-2,high_v_low,0.145097731453309,0.09774769722737177,0.18102610337563207,,,0.8490876882124899,0.39831602867034044,,,1102.0,0.19995645479349966,0.5692148760330579
Largest Eigenvalue,PSYCH_TASK_ATTENTION_SES-1,high_v_low,113943.04018851713,105793.90441691341,0.20816439428073663,,,0.9043299177651883,0.36949737907340596,,,1018.0,0.4891432234760249,0.5438034188034188
Noise Ratio,PSYCH_TASK_ATTENTION_SES-1,high_v_low,0.009711860046308207,0.011519881085098476,-0.34643928623047704,,,-1.5383641925345644,0.12882007771020193,,,787.0,0.19584483886258552,0.4204059829059829
Shifted Noise Ratio,PSYCH_TASK_ATTENTION_SES-1,high_v_low,0.02302546951376383,0.025919732441471572,-0.24419396048944356,,,-1.1589654740453672,0.24982863316588755,,,747.0,0.10706927324562461,0.39903846153846156
β,PSYCH_TASK_ATTENTION_SES-1,high_v_low,0.11514933554968132,0.13048426148240344,-0.058408084785013796,,,-0.263861936334066,0.7926645897172274,,,912.5,0.8223247820510966,0.4874465811965812
Largest Eigenvalue,PSYCH_TASK_ATTENTION_SES-2,high_v_low,109395.46953753343,113210.37416284888,-0.09703241312325031,,,-0.3549859900140901,0.724659216064931,,,748.0,0.41237946802066094,0.4452380952380952
Noise Ratio,PSYCH_TASK_ATTENTION_SES-2,high_v_low,0.010535117056856188,0.01027233635929288,0.04963443019370081,,,0.19236210350363736,0.848423417212622,,,952.5,0.3031073170134917,0.5669642857142857
Shifted Noise Ratio,PSYCH_TASK_ATTENTION_SES-2,high_v_low,0.024414715719063545,0.023769708552317248,0.054040910630230275,,,0.23783161980972833,0.8129156142590142,,,890.0,0.6550854749481139,0.5297619047619048
β,PSYCH_TASK_ATTENTION_SES-2,high_v_low,0.1132982819836586,0.13883221224751563,-0.09731545393940343,,,-0.3833133692669467,0.7034346472675247,,,892.5,0.5920153102067565,0.53125
Largest Eigenvalue,PSYCH_WEEKLY_ATTENTION_SES-1,high_v_low,111459.20463647154,109589.42065652851,0.047522095062505036,,,0.21764709349695985,0.8282994917975786,,,962.0,0.9899708323953129,0.5010416666666667
Noise Ratio,PSYCH_WEEKLY_ATTENTION_SES-1,high_v_low,0.010381828316610926,0.010535117056856187,-0.028948580620458183,,,-0.13647685590342135,0.8917655182626876,,,935.0,0.8331072251502742,0.4869791666666667
Shifted Noise Ratio,PSYCH_WEEKLY_ATTENTION_SES-1,high_v_low,0.024108138238573024,0.024331103678929766,-0.018675582404225732,,,-0.08634633140835096,0.9314091870776977,,,968.5,0.9461577531273221,0.5044270833333333
β,PSYCH_WEEKLY_ATTENTION_SES-1,high_v_low,0.15261117825566928,0.08399655764194573,0.26352216876489853,,,1.2561328920845263,0.21247476514583574,,,1143.0,0.07851151271771699,0.5953125
Largest Eigenvalue,PSYCH_WEEKLY_ATTENTION_SES-2,high_v_low,107687.2219925094,116870.90461647182,-0.23476713560955922,,,-1.2561845571720056,0.21253513652416872,,,677.0,0.14545474812260428,0.4029761904761905
Noise Ratio,PSYCH_WEEKLY_ATTENTION_SES-2,high_v_low,0.010758082497212933,0.009794553272814142,0.1826153799793608,,,0.9313583464194991,0.3545619942811339,,,859.0,0.8649317365039845,0.5113095238095238
Shifted Noise Ratio,PSYCH_WEEKLY_ATTENTION_SES-2,high_v_low,0.022909698996655518,0.026994744386048732,-0.34668248868437546,,,-1.366748949700466,0.1790145665925854,,,680.5,0.15132068168129725,0.4050595238095238
β,PSYCH_WEEKLY_ATTENTION_SES-2,high_v_low,0.09931768196876005,0.16879064085086964,-0.26657701896563984,,,-1.1413941966874952,0.2591142834135517,,,647.0,0.04726400657657391,0.38511904761904764
Largest Eigenvalue,PARKINSONS,control_v_parkinsons,24794.125057167654,23492.953126646058,0.20665185521017962,,,1.461249281638986,0.14554175456685495,,,5596.0,0.14565871896767005,0.5596
Noise Ratio,PARKINSONS,control_v_parkinsons,0.013648648648648651,0.014256756756756759,-0.09896564289329104,,,-0.6997927719433236,0.4848901160076291,,,4776.5,0.5631695303599126,0.47765
Shifted Noise Ratio,PARKINSONS,control_v_parkinsons,0.02506756756756756,0.025202702702702702,-0.01413678179593273,,,-0.09996214272058575,0.9204756672352724,,,4978.0,0.9570596558750882,0.4978
β,PARKINSONS,control_v_parkinsons,0.46633493151865774,0.37834870199482373,0.21801711679596278,,,1.5416138170116485,0.12476674550468855,,,5679.0,0.09311323974112853,0.5679
Largest Eigenvalue,PARKINSONS,control_pre_v_park_pre,40186.27902413549,45994.02961406293,-0.5447227118775945,,,-4.324591934692987,2.429827840374992e-05,,,7004.0,0.000213539643757534,0.37058201058201057
Noise Ratio,PARKINSONS,control_pre_v_park_pre,0.029639639639639642,0.029601029601029602,0.0038964900753757463,,,0.032139880346857636,0.9743849506185924,,,9584.0,0.8361436343772933,0.507089947089947
Shifted Noise Ratio,PARKINSONS,control_pre_v_park_pre,0.03612612612612613,0.0345881595881596,0.12765212120303293,,,1.066779875265395,0.28701388246972714,,,10062.5,0.34533566021843654,0.5324074074074074
β,PARKINSONS,control_pre_v_park_pre,0.7905011848764606,0.7328749159943951,0.14284325148788465,,,1.1730191331387234,0.2418767823912006,,,10055.5,0.2651234300513714,0.5320370370370371
Largest Eigenvalue,REFLECT_SUMMED,rest_v_task,24152.64838031709,19655.040276660442,1.4005338284519904,,,6.057626514996841,3.9764232311665657e-07,,,3164.0,2.7966604294020367e-08,0.8231009365244537
Noise Ratio,REFLECT_SUMMED,rest_v_task,0.010011123470522802,0.010929131896873834,-0.20349216596604397,,,-0.8527374714946632,0.39903969536485406,,,1661.0,0.23327877307387013,0.43210197710718
Shifted Noise Ratio,REFLECT_SUMMED,rest_v_task,0.014619418401398375,0.01936729356084195,-0.8333799150654166,,,-4.666089171867414,2.037428271575093e-05,,,1025.0,4.8894304071075735e-05,0.2666493236212279
β,REFLECT_SUMMED,rest_v_task,0.2700692784502295,0.009475491726559348,1.267577460436982,,,3.3795602724368874,0.0019928800280342588,,,2659.0,7.280270439275179e-09,0.6917273673257024
Largest Eigenvalue,REFLECT_INTERLEAVED,rest_v_task,64437.340754784265,35933.250865903065,9.75552720223767,,,34.82959876425036,1.3324342605441366e-28,,,3844.0,8.281906451123152e-18,1.0
Noise Ratio,REFLECT_INTERLEAVED,rest_v_task,0.0034317089910775576,0.00258809888608224,0.5256548202605252,,,2.4952152470109343,0.016442303479567943,,,2662.0,0.0006925526076636755,0.6925078043704475
Shifted Noise Ratio,REFLECT_INTERLEAVED,rest_v_task,0.014201995670767121,0.01676052838626858,-0.6419676541412306,,,-2.6460239921551207,0.011754299606511488,,,1159.0,0.0006185289457219782,0.30150884495317376
β,REFLECT_INTERLEAVED,rest_v_task,0.03226741892379288,1.000005749061332e-05,0.40560587894193273,,,0.9999999999999991,0.3253086154260302,,,1984.0,0.04727022615560951,0.5161290322580645
